﻿[
{
    "country" : "Thailand",
    "category" : "Food",
    "correctChoiceID" : 3,
    "locale" : {
        "th" : {
            "question" : "ข้อใดต่อไปนี้คืออาหารไทย?",
            "choices" : [
                "พิซซ่า",
                "ซูชิ",
                "ทาร์ตไข่",
                "ต้มยำกุ้ง"
            ],
            "correctReason" : ""
        },
        "eng" : {
            "question" : "Which food is a Thai food?",
            "choices" : [
                "Pizza",
                "Sushi",
                "Egg Tarts",
                "Tom Yum Kung"
            ],
            "correctReason" : "Tom Yum Kung is indeed a thai food."
        }
    }
},
{
    "country" : "Thailand",
    "category" : "Social",
    "correctChoiceID" : 1,
    "locale" : {
        "th" : {
            "question" : "",
            "choices" : [
                "",
                "",
                "",
                ""
            ],
            "correctReason" : ""
        },
        "eng" : {
            "question" : "On which side of the road do Thai people drive?",
            "choices" : [
                "Differs from city to city",
                "Left side",
                "Right side",
                "None of above"
            ],
            "correctReason" : "Thai people drive at the left side."
        }
    }
},
{
    "country" : "Thailand",
    "category" : "History",
    "correctChoiceID" : 1,
    "locale" : {
        "th" : {
            "question" : "",
            "choices" : [
                "",
                "",
                "",
                ""
            ],
            "correctReason" : ""
        },
        "eng" : {
            "question" : "What was the name of Thailand before 1939?",
            "choices" : [
                "The Kingdom of Thailand",
                "The Kingdom of Siam",
                "Land of the Free",
                "Land of the Elephants"
            ],
            "correctReason" : ""
        }
    }
},
{
    "country" : "Thailand",
    "category" : "Economic",
    "correctChoiceID" : 1,
    "locale" : {
        "th" : {
            "question" : "",
            "choices" : [
                "",
                "",
                "",
                ""
            ],
            "correctReason" : ""
        },
        "eng" : {
            "question" : "What is the elevated metro system in Bangkok called?",
            "choices" : [
                "Airtube",
                "Skytrain",
                "People Mover",
                "Light Rail Transit"
            ],
            "correctReason" : ""
        }
    }
},
{
    "country" : "Thailand",
    "category" : "Geography",
    "correctChoiceID" : 3,
    "locale" : {
        "th" : {
            "question" : "",
            "choices" : [
                "",
                "",
                "",
                ""
            ],
            "correctReason" : ""
        },
        "eng" : {
            "question" : "Which are the major religions in ASEAN?",
            "choices" : [
                "Taoism, Isalam and Hinduism",
                "Islam, Zen and Hinduism",
                "Christianity, Isalam and Hinduism",
                "Buddhism, Isalam and Christianity"
            ],
            "correctReason" : ""
        }
    }
},
{
    "country" : "Thailand",
    "category" : "Economic",
    "correctChoiceID" : 1,
    "locale" : {
        "th" : {
            "question" : "",
            "choices" : [
                "",
                "",
                "",
                ""
            ],
            "correctReason" : ""
        },
        "eng" : {
            "question" : "Who is the largest exporter of rice in the world?",
            "choices" : [
                "Thailand",
                "India",
                "Indonesia",
                "Myanmar"
            ],
            "correctReason" : ""
        }
    }
},
{
    "country" : "Thailand",
    "category" : "History",
    "correctChoiceID" : 2,
    "locale" : {
        "th" : {
            "question" : "",
            "choices" : [
                "",
                "",
                "",
                ""
            ],
            "correctReason" : ""
        },
        "eng" : {
            "question" : "Thailand is known around the world as:",
            "choices" : [
                "The Amazing Land",
                "The Land of Beaches",
                "The Land of Smiles",
                "The Land of the Elephants"
            ],
            "correctReason" : ""
        }
    }
},
{
    "country" : "Thailand",
    "category" : "Geography",
    "correctChoiceID" : 2,
    "locale" : {
        "th" : {
            "question" : "",
            "choices" : [
                "",
                "",
                "",
                ""
            ],
            "correctReason" : ""
        },
        "eng" : {
            "question" : "What is the biggest city in ASEAN?",
            "choices" : [
                "Manila",
                "Bangkok",
                "Jakarta",
                "Phnom Penh"
            ],
            "correctReason" : ""
        }
    }
},
{
    "country" : "Thailand",
    "category" : "Social",
    "correctChoiceID" : 2,
    "locale" : {
        "th" : {
            "question" : "",
            "choices" : [
                "",
                "",
                "",
                ""
            ],
            "correctReason" : ""
        },
        "eng" : {
            "question" : "What large animals are often seen on the streets of Bangkok?",
            "choices" : [
                "Tigers",
                "Hippos",
                "Elephants",
                "Buffaloes"
            ],
            "correctReason" : ""
        }
    }
},
{
    "country" : "Thailand",
    "category" : "Economic",
    "correctChoiceID" : 1,
    "locale" : {
        "th" : {
            "question" : "",
            "choices" : [
                "",
                "",
                "",
                ""
            ],
            "correctReason" : ""
        },
        "eng" : {
            "question" : "What is the motto of ASEAN?",
            "choices" : [
                "Two Great Communities One Vision for Children",
                "One Vision, One Identity, One Community",
                "Vision, Wisdom, Exellence",
                "Building towards one Caring and Sharing Community"
            ],
            "correctReason" : ""
        }
    }
},
{
    "country" : "Thailand",
    "category" : "History",
    "correctChoiceID" : 0,
    "locale" : {
        "th" : {
            "question" : "",
            "choices" : [
                "",
                "",
                "",
                ""
            ],
            "correctReason" : ""
        },
        "eng" : {
            "question" : "What is the national flower of Thailand?",
            "choices" : [
                "Ratchaphruek",
                "Simpor",
                "Champa",
                "Vanda Miss Joaquim"
            ],
            "correctReason" : ""
        }
    }
},
{
    "country" : "Thailand",
    "category" : "History",
    "correctChoiceID" : 1,
    "locale" : {
        "th" : {
            "question" : "",
            "choices" : [
                "",
                "",
                "",
                ""
            ],
            "correctReason" : ""
        },
        "eng" : {
            "question" : "When was ASEAN established?",
            "choices" : [
                "31-Dec-15",
                "8-Aug-1967",
                "30-Apr-99",
                "1-Jan-14"
            ],
            "correctReason" : ""
        }
    }
},
{
    "country" : "Thailand",
    "category" : "Economic",
    "correctChoiceID" : 2,
    "locale" : {
        "th" : {
            "question" : "อาชีพใดต่อไปนี้ ที่ ไม่ สามารถไปทำงานในประเทศอาเซียนได้อย่างเสรี?",
            "choices" : [
                "หมอ หมอฟัน",
                "วิศวกรรม สถาปัตยกรรม",
                "นักเขียน ตำรวจ",
                "นักสำรวจ นักบัญชี"
            ],
            "correctReason" : ""
        },
        "eng" : {
            "question" : "Which career can't freely transfer to work in another country in ASEAN",
            "choices" : [
                "Doctor, Dentist",
                "Engineer, Architect",
                "Writer, Policeman",
                "Explorer, Accountant"
            ],
            "correctReason" : ""
        }
    }
},
{
    "country" : "Thailand",
    "category" : "Economic",
    "correctChoiceID" : 0,
    "locale" : {
        "th" : {
            "question" : "",
            "choices" : [
                "",
                "",
                "",
                ""
            ],
            "correctReason" : ""
        },
        "eng" : {
            "question" : "Which country doens't need Visa when you have a Thai Passport?",
            "choices" : [
                "Cambodia",
                "China",
                "South Korea",
                "England"
            ],
            "correctReason" : ""
        }
    }
},
{
    "country" : "Thailand",
    "category" : "Education",
    "correctChoiceID" : 1,
    "locale" : {
        "th" : {
            "question" : "",
            "choices" : [
                "",
                "",
                "",
                ""
            ],
            "correctReason" : ""
        },
        "eng" : {
            "question" : "What does 'Gin Khao Lu Yang' mean in Thai?",
            "choices" : [
                "How are you?",
                "Have you eaten yet?",
                "What's your name?",
                "How old are you?"
            ],
            "correctReason" : ""
        }
    }
},
{
    "country" : "Thailand",
    "category" : "Culture",
    "correctChoiceID" : 0,
    "locale" : {
        "th" : {
            "question" : "",
            "choices" : [
                "",
                "",
                "",
                ""
            ],
            "correctReason" : ""
        },
        "eng" : {
            "question" : "What is a tuk tuk?",
            "choices" : [
                "An auto rickshaw",
                "A species of Thai parrot",
                "A nightclub",
                "A limousine"
            ],
            "correctReason" : ""
        }
    }
},
{
    "country" : "Thailand",
    "category" : "Education",
    "correctChoiceID" : 0,
    "locale" : {
        "th" : {
            "question" : "",
            "choices" : [
                "",
                "",
                "",
                ""
            ],
            "correctReason" : ""
        },
        "eng" : {
            "question" : "Which river flows through Bangkok?",
            "choices" : [
                "Chao Praya River",
                "Mekong River",
                "Ping River",
                "Ganges"
            ],
            "correctReason" : ""
        }
    }
},
{
    "country" : "Thailand",
    "category" : "Education",
    "correctChoiceID" : 3,
    "locale" : {
        "th" : {
            "question" : "",
            "choices" : [
                "",
                "",
                "",
                ""
            ],
            "correctReason" : ""
        },
        "eng" : {
            "question" : "How do you say Bangkok in Thai?",
            "choices" : [
                "Bangkok",
                "Kota Malaikat",
                "Lungsod ng Anghel",
                "Krung Thep"
            ],
            "correctReason" : ""
        }
    }
},
{
    "country" : "Thailand",
    "category" : "Education",
    "correctChoiceID" : 2,
    "locale" : {
        "th" : {
            "question" : "",
            "choices" : [
                "",
                "",
                "",
                ""
            ],
            "correctReason" : ""
        },
        "eng" : {
            "question" : "What is a Buddhist temple called in Thai?",
            "choices" : [
                "Mandir",
                "Pagoda",
                "Wat",
                "Mosque"
            ],
            "correctReason" : ""
        }
    }
},
{
    "country" : "Thailand",
    "category" : "Education",
    "correctChoiceID" : 3,
    "locale" : {
        "th" : {
            "question" : "",
            "choices" : [
                "",
                "",
                "",
                ""
            ],
            "correctReason" : ""
        },
        "eng" : {
            "question" : "If we want to call Thailand from any other country in the world, what calling code do we use?",
            "choices" : [
                "+35",
                "+75",
                "+95",
                "+66"
            ],
            "correctReason" : ""
        }
    }
}
]
